dialect  "mvel"

import com.megatravel.siemcenter.logs.models.Log;
import com.megatravel.siemcenter.logs.models.LogType;
import com.megatravel.siemcenter.common.services.LoggingService;
import com.megatravel.siemcenter.alarms.models.Alarm;


query getLogs
    $result: Log()
end

query getAlarms
    $result: Alarm()
end

query getAlarmsForRule (String $ruleId)
    $result: Alarm(forRule == $ruleId)
end
