package com.megatravel.simecenter.rules;
dialect  "mvel"

import java.time.LocalDateTime;

import com.megatravel.siemcenter.alarms.models.Alarm;
import com.megatravel.siemcenter.alarms.services.AlarmService;
import com.megatravel.siemcenter.common.models.IPAddress;
import com.megatravel.siemcenter.common.models.Platform;
import com.megatravel.siemcenter.common.models.Software;
import com.megatravel.siemcenter.common.models.FactStatus;
import com.megatravel.siemcenter.common.services.LoggingService;
import com.megatravel.siemcenter.common.services.IPAddressService;
import com.megatravel.siemcenter.common.services.SoftwareService;
import com.megatravel.siemcenter.common.services.PlatformService;
import com.megatravel.siemcenter.logs.models.Log;
import com.megatravel.siemcenter.logs.models.LogType;
import com.megatravel.siemcenter.logs.services.LogService;


global LogService logService
global AlarmService alarmService
global IPAddressService ipAddressService
global SoftwareService softwareService
global PlatformService platformService



rule "Login logs" salience 9
no-loop
when
    $log: Log(message contains "login") //TODO: make a regex query
then
    $log.getMetadata().put("class", "login");
    update($log);
end
